{
  "ruleChain": {
    "additionalInfo": null,
    "name": "Vapor Pressure",
    "firstRuleNodeId": null,
    "root": false,
    "debugMode": true,
    "configuration": null
  },
  "metadata": {
    "firstNodeIndex": 0,
    "nodes": [
      {
        "additionalInfo": {
          "layoutX": 211,
          "layoutY": 221
        },
        "type": "org.thingsboard.rule.engine.filter.TbJsFilterNode",
        "name": "checkDeviceType",
        "debugMode": false,
        "configuration": {
          "jsScript": "return  metadata.deviceName === \"d04\" || metadata.deviceName === \"d10\" || metadata.deviceName === \"d08\";"
        }
      },
      {
        "additionalInfo": {
          "layoutX": 463,
          "layoutY": 600
        },
        "type": "org.thingsboard.rule.engine.transform.TbTransformMsgNode",
        "name": "CV system",
        "debugMode": true,
        "configuration": {
          "jsScript": "msg = {\n    \"vp\":metadata.vp,\n    \"pt\":metadata.index\n}\n\nreturn {msg: msg};"
        }
      },
      {
        "additionalInfo": {
          "layoutX": 203,
          "layoutY": 293
        },
        "type": "org.thingsboard.rule.engine.transform.TbTransformMsgNode",
        "name": "vp",
        "debugMode": true,
        "configuration": {
          "jsScript": "var temperature=Number(msg.Temperature);\nvar humidity=Number(msg.Humidity);\nvar table = {\n    \"-20\":\t1.00,\n    \"-19\":\t1.10,\n    \"-18\":\t1.20,\n    \"-17\":\t1.40,\n    \"-16\":\t1.50,\n    \"-15\":\t1.70,\n    \"-14\":\t1.80,\n    \"-13\":\t2.00,\n    \"-12\":\t2.20,\n    \"-11\":\t2.40,\n    \"-10\":\t2.60,\n    \"-9\":\t2.80,\n    \"-8\":\t3.10,\n    \"-7\":\t3.40,\n    \"-6\":\t3.70,\n    \"-5\":\t4.00,\n    \"-4\":\t4.40,\n    \"-3\":\t4.80,\n    \"-2\":\t5.20,\n    \"-1\":\t5.60,\n    \"0\":\t6.10,\n    \"1\":\t6.60,\n    \"2\":\t7.10,\n    \"3\":\t7.60,\n    \"4\":\t8.10,\n    \"5\":\t8.70,\n    \"6\":\t9.30,\n    \"7\":\t10.00,\n    \"8\":\t10.70,\n    \"9\":\t11.50,\n    \"10\":\t12.30,\n    \"11\":\t13.10,\n    \"12\":\t14.00,\n    \"13\":\t15.00,\n    \"14\":\t16.00,\n    \"15\":\t17.10,\n16:\t18.20,\n17:\t19.40,\n18:\t20.60,\n19:\t22.00,\n20:\t23.40,\n21:\t24.90,\n22:\t26.40,\n23:\t28.10,\n24:\t29.80,\n25:\t31.70,\n26:\t33.60,\n27:\t35.70,\n28:\t37.80,\n29:\t40.10,\n30:\t42.40,\n31:\t44.90,\n32:\t47.50,\n33:\t50.30,\n34:\t53.20,\n35:\t56.20,\n36:\t59.40,\n37:\t62.80,\n38:\t66.20,\n39:\t69.90,\n40:\t73.80,\n41:\t77.80,\n42:\t82.00,\n43:\t86.40,\n44:\t91.00,\n45:\t95.80,\n46:\t100.90,\n47:\t106.10,\n48:\t111.60,\n49:\t117.40,\n50:\t123.30,\n51:\t129.60,\n52:\t136.10,\n53:\t142.90,\n54:\t150.00,\n55:\t157.30,\n56:\t165.10,\n57:\t173.10,\n58:\t181.50,\n59:\t190.10,\n60:\t199.20,\n61:\t208.50,\n62:\t218.40,\n63:\t228.50,\n64:\t239.10,\n65:\t250.00,\n66:\t261.50,\n67:\t273.30,\n68:\t285.60,\n69:\t298.30,\n70:\t311.60,\n71:\t325.20,\n72:\t339.50,\n73:\t354.30,\n74:\t369.60,\n75:\t385.50,\n76:\t401.90,\n77:\t418.80,\n78:\t436.40,\n79:\t454.70,\n80:\t473.50,\n81:\t492.90,\n82:\t513.20,\n83:\t534.10,\n84:\t555.70,\n85:\t578.10,\n86:\t601.20,\n87:\t624.90,\n88:\t649.50,\n89:\t674.80,\n90:\t701.00,\n91:\t728.10,\n92:\t756.00,\n93:\t784.80,\n94:\t814.50,\n95:\t845.20,\n96:\t876.80,\n97:\t909.40,\n98:\t943.00,\n99:\t977.60,\n100: 1013.30\n}\nmetadata.vp = Math.round(table[temperature]*humidity/100);\nmetadata.vp < 5 ? metadata.pt = 0.95 :metadata.pt = (с1*Math.exp(с2*metadata.vp)).toFixed(2);\n\nreturn {msg: msg, metadata: metadata, msgType: msgType};"
        }
      },
      {
        "additionalInfo": {
          "layoutX": 803,
          "layoutY": 426
        },
        "type": "org.thingsboard.rule.engine.telemetry.TbMsgTimeseriesNode",
        "name": "Save Time Series",
        "debugMode": false,
        "configuration": {
          "defaultTTL": 0
        }
      },
      {
        "additionalInfo": {
          "layoutX": 1041,
          "layoutY": 504
        },
        "type": "org.thingsboard.rule.engine.metadata.TbGetRelatedAttributeNode",
        "name": "Fetch Wind Sensor Telemetry",
        "debugMode": false,
        "configuration": {
          "attrMapping": {
            "Noise": "Noisefix"
          },
          "relationsQuery": {
            "direction": "FROM",
            "maxLevel": 1,
            "filters": [
              {
                "relationType": "Uses",
                "entityTypes": [
                  "DEVICE"
                ]
              }
            ]
          },
          "telemetry": true
        }
      },
      {
        "additionalInfo": {
          "layoutX": 1320,
          "layoutY": 501
        },
        "type": "org.thingsboard.rule.engine.rpc.TbSendRPCRequestNode",
        "name": "Rotating System",
        "debugMode": false,
        "configuration": {
          "timeoutInSeconds": 60
        }
      },
      {
        "additionalInfo": {
          "layoutX": 1028,
          "layoutY": 300
        },
        "type": "org.thingsboard.rule.engine.transform.TbChangeOriginatorNode",
        "name": "Create New Telemetry",
        "debugMode": false,
        "configuration": {
          "originatorSource": "RELATED",
          "relationsQuery": {
            "direction": "TO",
            "maxLevel": 1,
            "filters": [
              {
                "relationType": "Contains",
                "entityTypes": [
                  "ASSET"
                ]
              }
            ]
          }
        }
      },
      {
        "additionalInfo": {
          "layoutX": 1293,
          "layoutY": 300
        },
        "type": "org.thingsboard.rule.engine.telemetry.TbMsgTimeseriesNode",
        "name": "Save Time Series",
        "debugMode": false,
        "configuration": {
          "defaultTTL": 0
        }
      },
      {
        "additionalInfo": {
          "layoutX": 644,
          "layoutY": 316
        },
        "type": "org.thingsboard.rule.engine.filter.TbMsgTypeSwitchNode",
        "name": "t",
        "debugMode": false,
        "configuration": {
          "version": 0
        }
      },
      {
        "additionalInfo": {
          "layoutX": 196,
          "layoutY": 365
        },
        "type": "org.thingsboard.rule.engine.transform.TbTransformMsgNode",
        "name": "Temperature index",
        "debugMode": true,
        "configuration": {
          "jsScript": "var t=Number(msg.Temperature);\nif (t>=с3 && t<= с4) metadata.temperature_index = с5+(с6-t)/с6;\nif (t>с7 && t<=с8) metadata.temperature_index = 1;\nif (t>с8) metadata.temperature_index = (с9-t)/(с9-с8);\nmetadata.temperature_index = parseFloat(metadata.temperature_index).toFixed(2)\nreturn {msg: msg, metadata: metadata, msgType: msgType};"
        }
      },
      {
        "additionalInfo": {
          "layoutX": 198,
          "layoutY": 445
        },
        "type": "org.thingsboard.rule.engine.transform.TbTransformMsgNode",
        "name": "AH_Temperature_Index",
        "debugMode": true,
        "configuration": {
          "jsScript": "ti = metadata.temperature_index;\nah = metadata.pt;\nti <= с10 ?  metadata.aht_index = ah*ti : metadata.aht_index = ah + (с11-ah)*(ti-с11)/с12;\nmetadata.aht_index = parseFloat(metadata.aht_index).toFixed(2);\nreturn {msg: msg, metadata: metadata, msgType: msgType};"
        }
      },
      {
        "additionalInfo": {
          "layoutX": 198,
          "layoutY": 516
        },
        "type": "org.thingsboard.rule.engine.transform.TbTransformMsgNode",
        "name": "Ventilation_index",
        "debugMode": true,
        "configuration": {
          "jsScript": "co2 = Number(msg.CO2);\nmetadata.aht_index = Number(metadata.aht_index);\nif (co2 < с12){\n        v_rate = (с12-co2)/(с13)*с14;\n        metadata.v_index = metadata.aht_index * (с15-v_rate)}\nelse {\n    v_rate = с16 * ( co2-с17)/co2;\n    if (metadata.aht_index < с18) metadata.v_index = metadata.aht_index * (с19+v_rate)\n        else\n            metadata.v_index = metadata.aht_index + (с20-metadata.aht_index)* (v_rate);\n}\nmetadata.v_index = parseFloat(metadata.v_index).toFixed(2);\nreturn {msg: msg, metadata: metadata, msgType: msgType};"
        }
      },
      {
        "additionalInfo": {
          "layoutX": 200,
          "layoutY": 594
        },
        "type": "org.thingsboard.rule.engine.transform.TbTransformMsgNode",
        "name": "dust_index",
        "debugMode": true,
        "configuration": {
          "jsScript": "dust = Number(msg.PM1_0);\nmetadata.v_index = Number(metadata.v_index);\nif (dust <= с22) metadata.index = metadata.v_index;\nif (dust > с23) {\n    d_rate = с24 * (dust-с22)/с22;\n    if (metadata.v_index < с24) metadata.index = metadata.v_index * (с25+d_rate)\n        else\n            metadata.index = metadata.v_index + (с26-metadata.v_index)* (d_rate);\n}\nmetadata.index = Math.exp(с27+metadata.index).toFixed(2)-с28;\n\nreturn {msg: msg, metadata: metadata, msgType: msgType};"
        }
      }
    ],
    "connections": [
      {
        "fromIndex": 0,
        "toIndex": 2,
        "type": "True"
      },
      {
        "fromIndex": 1,
        "toIndex": 8,
        "type": "Success"
      },
      {
        "fromIndex": 2,
        "toIndex": 9,
        "type": "Success"
      },
      {
        "fromIndex": 3,
        "toIndex": 4,
        "type": "Success"
      },
      {
        "fromIndex": 3,
        "toIndex": 6,
        "type": "Success"
      },
      {
        "fromIndex": 4,
        "toIndex": 5,
        "type": "Success"
      },
      {
        "fromIndex": 6,
        "toIndex": 7,
        "type": "Success"
      },
      {
        "fromIndex": 8,
        "toIndex": 3,
        "type": "Post telemetry"
      },
      {
        "fromIndex": 9,
        "toIndex": 10,
        "type": "Success"
      },
      {
        "fromIndex": 10,
        "toIndex": 11,
        "type": "Success"
      },
      {
        "fromIndex": 11,
        "toIndex": 12,
        "type": "Success"
      },
      {
        "fromIndex": 12,
        "toIndex": 1,
        "type": "Success"
      }
    ],
    "ruleChainConnections": null
  }
}